<svg xmlns="http://www.w3.org/2000/svg" role="img" viewBox="5.55 5.30 101.14 85.64">
<title>WhiteSource logo</title>
<defs>
<clipPath id="a" clipPathUnits="userSpaceOnUse">
<path d="M0 70.542h84.25V0H0z"/></clipPath>
</defs>
<path fill="currentColor" d="M11.19 89.01L7.591 78.412h2.481l2.182 7.126 2.362-7.157H16.6l2.364 7.157 2.18-7.126h2.414L19.97 89.01h-2.012l-2.378-6.885-2.38 6.885z"/>
<g clip-path="url(#a)" transform="matrix(1.33333 0 0 -1.33333 0 94.056)">
<path fill="currentColor" d="M18.659 3.839v8.23h1.718V9.025c.235.301.489.539.763.711.273.171.608.258 1.004.258.646 0 1.149-.199 1.51-.597.362-.399.544-.946.544-1.643V3.839h-1.713v3.37c0 .4-.092.705-.273.916-.18.213-.436.316-.767.316-.334 0-.596-.103-.784-.316-.19-.211-.284-.516-.284-.916v-3.37z"/>
<path fill="currentColor" d="M25.761 9.884h1.711V3.838h-1.711zm-.051 2.186h1.807v-1.521H25.71z"/>
<path fill="currentColor" d="M31.123 3.74c-.565 0-1 .137-1.305.41-.305.274-.457.74-.457 1.4v2.864h-.721v1.47h.72v1.543h1.718V9.885h1.42V8.414h-1.42V5.83c0-.197.045-.344.132-.441.089-.093.229-.142.419-.142.307 0 .59.073.848.215V4.088c-.392-.233-.844-.347-1.354-.347"/>
<path fill="currentColor" d="M34.97 7.334h2.583c-.051.395-.188.706-.411.937-.221.232-.508.347-.86.347a1.17 1.17 0 0 1-.865-.344c-.228-.23-.376-.543-.446-.94m1.476-3.632c-.914 0-1.67.29-2.263.876-.595.583-.891 1.332-.891 2.25v.023c0 .572.125 1.098.376 1.574.25.477.607.859 1.066 1.14.459.287.974.429 1.547.429.487 0 .922-.091 1.307-.27.382-.18.692-.424.925-.731.232-.308.409-.656.528-1.044.12-.387.179-.8.179-1.235a7.3 7.3 0 0 0-.022-.452h-4.206c.085-.386.255-.68.515-.881.259-.202.58-.303.966-.303.285 0 .54.049.768.146.226.098.458.256.696.476l.979-.87c-.604-.752-1.428-1.128-2.47-1.128"/>
<path fill="currentColor" d="M43.482 3.73c-.61 0-1.204.104-1.785.32-.58.211-1.1.524-1.563.94l1.025 1.228c.777-.639 1.563-.959 2.356-.959.356 0 .634.067.837.198a.621.621 0 0 1 .302.545v.023c0 .153-.04.282-.121.385-.081.103-.236.205-.465.306-.23.1-.564.206-1.004.315-.25.063-.465.122-.647.18-.182.057-.37.124-.565.203a3.125 3.125 0 0 0-.49.245 2.603 2.603 0 0 0-.383.303 1.46 1.46 0 0 0-.293.388 1.97 1.97 0 0 0-.174.488 2.654 2.654 0 0 0-.063.604v.023c0 .712.257 1.285.773 1.723.515.437 1.178.656 1.99.656 1.123 0 2.099-.334 2.929-1.003l-.903-1.309c-.753.52-1.435.781-2.048.781-.323 0-.574-.064-.752-.192a.592.592 0 0 1-.267-.496v-.022c0-.252.11-.447.33-.578.22-.132.68-.286 1.377-.462a7.792 7.792 0 0 0 1.07-.355 3.27 3.27 0 0 0 .774-.466c.224-.184.389-.403.496-.657.106-.257.16-.553.16-.89v-.022c0-.767-.266-1.365-.796-1.798-.53-.43-1.23-.646-2.1-.646"/>
<path fill="currentColor" d="M50.693 5.183c.473 0 .854.157 1.14.476.285.317.43.707.43 1.17v.021c0 .46-.15.851-.449 1.18-.3.324-.68.488-1.142.488-.474 0-.854-.158-1.14-.476-.287-.317-.429-.709-.429-1.169V6.85c0-.458.148-.85.448-1.178.298-.326.68-.489 1.142-.489m-.02-1.48c-.614 0-1.17.137-1.67.417a3.056 3.056 0 0 0-1.591 2.708v.022a3.137 3.137 0 0 0 .933 2.224c.288.283.635.507 1.043.672.408.164.842.248 1.305.248.613 0 1.17-.138 1.667-.416a3.05 3.05 0 0 0 1.593-2.705V6.85a3.06 3.06 0 0 0-.424-1.579 3.114 3.114 0 0 0-1.179-1.146 3.36 3.36 0 0 0-1.678-.423"/>
<path fill="currentColor" d="M57.195 3.73c-.646 0-1.15.198-1.512.597-.361.397-.541.945-.541 1.642v3.916h1.71V6.508c0-.399.093-.705.275-.913.18-.209.438-.314.767-.314.334 0 .596.105.785.317.189.211.283.515.283.91v3.377h1.718V3.838h-1.718v.86a3.033 3.033 0 0 0-.763-.71c-.273-.174-.608-.259-1.004-.259"/>
<path fill="currentColor" d="M62.205 3.839v6.045h1.716V8.667c.383.925 1.025 1.367 1.93 1.327V8.205h-.095c-.585 0-1.036-.177-1.355-.534-.32-.356-.48-.889-.48-1.597V3.839z"/>
<path fill="currentColor" d="M69.597 3.702c-.595 0-1.133.14-1.615.42a3 3 0 0 0-1.126 1.138 3.148 3.148 0 0 0-.402 1.568v.022c0 .573.134 1.098.402 1.575a3.01 3.01 0 0 0 1.134 1.142 3.182 3.182 0 0 0 1.635.427c.547 0 1.011-.086 1.394-.256a2.998 2.998 0 0 0 1.017-.757l-1.052-1.13a2.472 2.472 0 0 1-.632.503 1.59 1.59 0 0 1-.743.164 1.33 1.33 0 0 1-1.049-.48 1.728 1.728 0 0 1-.416-1.165V6.85c0-.473.142-.87.424-1.19.282-.318.654-.477 1.112-.477.271 0 .514.052.727.159.213.108.434.266.66.479l1.003-1.013a3.609 3.609 0 0 0-1.06-.822c-.38-.19-.85-.284-1.413-.284"/>
<path fill="currentColor" d="M74.398 7.334h2.583c-.053.395-.189.706-.412.937-.22.232-.508.347-.86.347a1.17 1.17 0 0 1-.866-.344c-.227-.23-.375-.543-.445-.94m1.475-3.632c-.913 0-1.667.29-2.262.876-.595.583-.892 1.332-.892 2.25v.023c0 .572.126 1.098.376 1.574.252.477.607.859 1.067 1.14a2.85 2.85 0 0 0 1.547.429c.487 0 .923-.091 1.306-.27a2.45 2.45 0 0 0 .926-.731c.232-.308.41-.656.528-1.044.12-.387.18-.8.18-1.235 0-.09-.009-.24-.024-.452H74.42c.085-.386.256-.68.516-.881.258-.202.581-.303.966-.303.287 0 .541.049.767.146a2.5 2.5 0 0 1 .696.476l.981-.87c-.606-.752-1.429-1.128-2.472-1.128"/>
<path fill="currentColor" d="M26.823 41.215h30.701v5.202H26.823z"/>
<path fill="currentColor" d="M42.408 64.445c-8.476 0-15.348-6.874-15.348-15.35l.854-3.44 29.847-3.393v6.833c0 8.475-6.87 15.35-15.353 15.35"/>
<path fill="currentColor" d="M42.17 64.445c-8.475 0-15.347-6.874-15.347-15.35v-7.13l15.348 1.847z"/>
<path fill="currentColor" d="M42.18 65.075c-.082 0-.163.003-.244.003-1.692 0-3.318-.284-4.841-.803v-20.46H47.25v21.261z"/>
<path fill="currentColor" d="M42.17 44.093v20.981c-.077 0-.154.007-.235.007-.043 0-.084-.007-.132-.007h-4.708V43.693z"/>
<path fill="currentColor" d="M58.255 42.776a71.15 71.15 0 0 1-16.083 1.829 71.153 71.153 0 0 1-16.084-1.829.844.844 0 1 1 0-1.686h.205a69.925 69.925 0 0 0 15.88 1.815A69.92 69.92 0 0 0 58.05 41.09h.205a.842.842 0 1 1 0 1.686"/>
<path fill="currentColor" d="M39.002 50.267l3.761-3.766 1.829 2.902v.864z"/>
<path fill="currentColor" d="M42.223 29.198c-3.682 0-6.637 3.027-6.448 6.755.06 1.171.44 2.266 1.047 3.111H25.93c-.398 0-.67-.208-.67-.606V32.7c0-.398.272-.683.67-.683h2.887a.738.738 0 0 0 .684-.513c.226-.688.506-1.372.833-2.007a.724.724 0 0 0-.128-.842l-2.056-2.074a.722.722 0 0 1 .001-1.018l4.114-4.123a.72.72 0 0 1 1.021.001l2.065 2.076a.72.72 0 0 0 .84.133 12.349 12.349 0 0 1 1.853-.788c.297-.096.464-.372.464-.685V19.16c0-.398.393-.673.791-.673h2.85l.024 10.712z"/>
<path fill="currentColor" d="M42.173 29.198c3.665 0 6.637 3.027 6.448 6.755-.06 1.171-.44 2.266-1.047 3.111h10.892c.398 0 .62-.208.62-.606V32.7c0-.398-.222-.683-.62-.683h-2.887a.738.738 0 0 1-.684-.513 13.876 13.876 0 0 0-.833-2.007.724.724 0 0 1 .128-.842l2.056-2.074a.722.722 0 0 0-.001-1.018L52.13 21.44a.72.72 0 0 0-1.021.001l-2.065 2.076a.719.719 0 0 1-.84.133 12.64 12.64 0 0 0-1.878-.788.71.71 0 0 1-.49-.685V19.16c0-.398-.342-.673-.74-.673h-2.924z"/>
<path fill="currentColor" d="M42.539 29.175a6.303 6.303 0 0 0-.274-.007c.17 0 .189.002.274.007"/>
<path fill="currentColor" d="M42.265 29.198h-.042z"/>
<path fill="currentColor" d="M48.005 35.444a5.784 5.784 0 0 0-5.786-5.784c-.015 0-.03.004-.047.004v-2.579l.047-.001a8.361 8.361 0 0 1 8.364 8.36 8.408 8.408 0 0 1-.825 3.621h-3.032c.8-.846 1.28-2.248 1.28-3.621"/>
<path fill="currentColor" d="M36.294 35.444c0-3.195 2.614-5.784 5.809-5.784l.07.004v-2.579l-.07-.001c-4.62 0-8.376 3.741-8.376 8.36 0 1.298.286 2.493.814 3.621h3.032c-.8-.846-1.28-2.248-1.28-3.621"/>
</g>
</svg>